<?xml version="1.0" encoding="UTF-8" standalone="no"?>
<!-- Created with Inkscape (http://www.inkscape.org/) -->

<svg
   xmlns:dc="http://purl.org/dc/elements/1.1/"
   xmlns:cc="http://creativecommons.org/ns#"
   xmlns:rdf="http://www.w3.org/1999/02/22-rdf-syntax-ns#"
   xmlns:svg="http://www.w3.org/2000/svg"
   xmlns="http://www.w3.org/2000/svg"
   xmlns:xlink="http://www.w3.org/1999/xlink"
   xmlns:sodipodi="http://sodipodi.sourceforge.net/DTD/sodipodi-0.dtd"
   xmlns:inkscape="http://www.inkscape.org/namespaces/inkscape"
   width="512"
   height="512"
   viewBox="0 0 512.00001 512.00001"
   id="svg2"
   version="1.1"
   inkscape:version="0.91 r13725"
   sodipodi:docname="app_icon.svg">
  <defs
     id="defs4">
    <linearGradient
       inkscape:collect="always"
       id="linearGradient4211">
      <stop
         style="stop-color:#da999f;stop-opacity:1"
         offset="0"
         id="stop4213" />
      <stop
         style="stop-color:#9e2e39;stop-opacity:1"
         offset="1"
         id="stop4215" />
    </linearGradient>
    <linearGradient
       inkscape:collect="always"
       id="linearGradient4203">
      <stop
         style="stop-color:#d05b66;stop-opacity:1"
         offset="0"
         id="stop4205" />
      <stop
         style="stop-color:#b51e2c;stop-opacity:1"
         offset="1"
         id="stop4207" />
    </linearGradient>
    <inkscape:perspective
       sodipodi:type="inkscape:persp3d"
       inkscape:vp_x="-335.58777 : 1068.8378 : 1"
       inkscape:vp_y="999.92905 : -11.911281 : 0"
       inkscape:vp_z="-344.45088 : 324.79607 : 1"
       inkscape:persp3d-origin="-515.40059 : 698.90609 : 1"
       id="perspective4149" />
    <radialGradient
       inkscape:collect="always"
       xlink:href="#linearGradient4203"
       id="radialGradient4239"
       cx="361.8587"
       cy="185.17709"
       fx="361.8587"
       fy="185.17709"
       r="224.13553"
       gradientTransform="matrix(1.4818008,6.3254241e-8,0,1.1333155,-288.52994,512.19624)"
       gradientUnits="userSpaceOnUse" />
    <filter
       style="color-interpolation-filters:sRGB;"
       inkscape:label="Drop Shadow"
       id="filter4422">
      <feFlood
         flood-opacity="0.498039"
         flood-color="rgb(0,0,0)"
         result="flood"
         id="feFlood4424" />
      <feComposite
         in="flood"
         in2="SourceGraphic"
         operator="in"
         result="composite1"
         id="feComposite4426" />
      <feGaussianBlur
         in="composite1"
         stdDeviation="5"
         result="blur"
         id="feGaussianBlur4428" />
      <feOffset
         dx="0"
         dy="2"
         result="offset"
         id="feOffset4430" />
      <feComposite
         in="SourceGraphic"
         in2="offset"
         operator="over"
         result="composite2"
         id="feComposite4432" />
    </filter>
    <radialGradient
       inkscape:collect="always"
       xlink:href="#linearGradient4211"
       id="radialGradient4434"
       cx="253.27858"
       cy="756.96729"
       fx="253.27858"
       fy="756.96729"
       r="245.13708"
       gradientTransform="matrix(1.1922579,1.2561645e-8,0,0.07576154,-48.973441,516.09565)"
       gradientUnits="userSpaceOnUse" />
  </defs>
  <sodipodi:namedview
     id="base"
     pagecolor="#ffffff"
     bordercolor="#666666"
     borderopacity="1.0"
     inkscape:pageopacity="0.0"
     inkscape:pageshadow="2"
     inkscape:zoom="1.1816842"
     inkscape:cx="420.7661"
     inkscape:cy="235.17157"
     inkscape:document-units="px"
     inkscape:current-layer="text4219"
     showgrid="false"
     units="px"
     inkscape:window-width="1920"
     inkscape:window-height="1021"
     inkscape:window-x="0"
     inkscape:window-y="0"
     inkscape:window-maximized="1" />
  <metadata
     id="metadata7">
    <rdf:RDF>
      <cc:Work
         rdf:about="">
        <dc:format>image/svg+xml</dc:format>
        <dc:type
           rdf:resource="http://purl.org/dc/dcmitype/StillImage" />
        <dc:title />
      </cc:Work>
    </rdf:RDF>
  </metadata>
  <g
     inkscape:label="Layer 1"
     inkscape:groupmode="layer"
     id="layer1"
     transform="translate(0,-540.36216)">
    <path
       style="opacity:1;fill:url(#radialGradient4239);fill-opacity:1;fill-rule:nonzero;stroke:none;stroke-width:1;stroke-linecap:butt;stroke-linejoin:miter;stroke-miterlimit:4;stroke-dasharray:none;stroke-dashoffset:0;stroke-opacity:1;filter:url(#filter4422)"
       d="m 10.858713,576.01784 490.282577,0 0,465.94896 -490.282577,0 z"
       id="rect4165"
       inkscape:connector-curvature="0" />
    <path
       style="fill:url(#radialGradient4434);fill-opacity:1;fill-rule:evenodd;stroke:none;stroke-width:1px;stroke-linecap:butt;stroke-linejoin:miter;stroke-opacity:1"
       d="m 34.670689,551.87268 442.705151,0 23.76125,24.14397 -490.274179,0 c 7.97612,-8.00148 15.880384,-16.08888 23.807778,-24.14397 z"
       id="path4169"
       inkscape:connector-curvature="0"
       sodipodi:nodetypes="ccccc" />
    <g
       transform="scale(1.022778,0.97772928)"
       style="font-style:normal;font-weight:normal;font-size:529.3336792px;line-height:125%;font-family:Sans;letter-spacing:0px;word-spacing:0px;fill:#000000;fill-opacity:0.48325363;stroke:none;stroke-width:1px;stroke-linecap:butt;stroke-linejoin:miter;stroke-opacity:1"
       id="text4219">
      <path
         d="m 329.64706,700.77239 q 16.28321,21.45249 25.84637,55.05277 9.56315,33.60029 9.56315,75.21294 0,43.16344 -9.56315,75.21294 -9.56316,31.79104 -25.58791,52.98506 -15.76629,20.93556 -36.70185,31.27411 -20.93556,10.33859 -43.4219,10.33859 -23.5202,0 -44.45576,-12.4063 -20.6771,-12.66472 -36.18492,-35.40952 -15.50782,-22.74481 -24.55405,-54.53585 -9.04623,-31.79103 -9.04623,-70.30213 0,-38.51109 9.30469,-70.56059 9.3047,-32.0495 24.81252,-55.05277 15.76628,-23.00327 36.44338,-35.66799 20.6771,-12.92319 43.68037,-12.92319 13.18165,0 24.29559,3.10157 11.11394,2.8431 20.67709,8.78776 9.82163,5.94467 18.09246,14.73243 8.52931,8.52931 16.80015,20.16017 z m -38.5111,37.47724 q -6.46159,-15.24936 -17.0586,-24.03712 -10.59701,-8.78777 -23.77866,-8.78777 -11.63087,0 -22.22788,8.5293 -10.33855,8.27084 -18.35093,23.5202 -8.01237,15.24936 -12.92318,36.70185 -4.65235,21.19402 -4.65235,47.29886 0,4.65234 0.25847,10.33854 0.25846,5.68621 0.51692,11.63087 0.51693,5.6862 0.77539,11.11394 0.51693,5.42774 1.03386,9.04623 l 96.40696,-125.3549 z m -81.67453,176.78918 q 6.46159,15.24936 17.0586,24.03712 10.59702,8.78777 23.77867,8.78777 11.63086,0 21.96941,-8.27084 10.59701,-8.5293 18.60939,-23.5202 8.01237,-15.24935 12.66472,-36.44338 4.91081,-21.45249 4.91081,-47.55732 0,-4.65235 -0.25846,-10.33855 -0.25847,-5.94467 -0.77539,-11.63087 -0.25847,-5.94466 -0.77539,-11.11394 -0.51693,-5.42773 -0.7754,-9.30469 l -96.40696,125.3549 z"
         style="font-style:normal;font-variant:normal;font-weight:bold;font-stretch:normal;font-family:Inconsolata;-inkscape-font-specification:Inconsolata;fill:#000000;fill-opacity:0.48325363"
         id="path4153" />
    </g>
  </g>
</svg>
