<?xml version="1.0" encoding="UTF-8" standalone="no"?>
<!-- Created with Inkscape (http://www.inkscape.org/) -->

<svg
   xmlns:dc="http://purl.org/dc/elements/1.1/"
   xmlns:cc="http://creativecommons.org/ns#"
   xmlns:rdf="http://www.w3.org/1999/02/22-rdf-syntax-ns#"
   xmlns:svg="http://www.w3.org/2000/svg"
   xmlns="http://www.w3.org/2000/svg"
   xmlns:xlink="http://www.w3.org/1999/xlink"
   xmlns:sodipodi="http://sodipodi.sourceforge.net/DTD/sodipodi-0.dtd"
   xmlns:inkscape="http://www.inkscape.org/namespaces/inkscape"
   width="32"
   height="32"
   id="svg2"
   version="1.1"
   inkscape:version="0.48.4 r9939"
   sodipodi:docname="ic_led_on.svg">
  <defs
     id="defs4">
    <linearGradient
       id="linearGradient3767">
      <stop
         style="stop-color:#ef7165;stop-opacity:1;"
         offset="0"
         id="stop3769" />
      <stop
         style="stop-color:#e31e27;stop-opacity:1;"
         offset="1"
         id="stop3771" />
    </linearGradient>
    <linearGradient
       id="linearGradient3755">
      <stop
         style="stop-color:#aaaaaa;stop-opacity:1;"
         offset="0"
         id="stop3757" />
      <stop
         style="stop-color:#333333;stop-opacity:1;"
         offset="1"
         id="stop3759" />
    </linearGradient>
    <linearGradient
       inkscape:collect="always"
       xlink:href="#linearGradient3755"
       id="linearGradient3763"
       x1="-24.607239"
       y1="-1.2718995"
       x2="-5.9498744"
       y2="-1.2718995"
       gradientUnits="userSpaceOnUse"
       gradientTransform="matrix(0.92625389,0,0,0.92625391,-1.1267348,-0.09364719)" />
    <radialGradient
       inkscape:collect="always"
       xlink:href="#linearGradient3767"
       id="radialGradient3773"
       cx="-15.278557"
       cy="-1.2718995"
       fx="-15.278557"
       fy="-1.2718995"
       r="9.3287814"
       gradientTransform="matrix(0.92625389,0,0,1.0453578,-1.1267348,0.05784072)"
       gradientUnits="userSpaceOnUse" />
    <radialGradient
       inkscape:collect="always"
       xlink:href="#linearGradient3767-5"
       id="radialGradient3773-2"
       cx="-15.278557"
       cy="-1.2718995"
       fx="-15.278557"
       fy="-1.2718995"
       r="9.3287811"
       gradientTransform="matrix(1,0,0,1.1285866,0.09707451,0.05160023)"
       gradientUnits="userSpaceOnUse" />
    <linearGradient
       id="linearGradient3767-5">
      <stop
         style="stop-color:#ef7165;stop-opacity:1;"
         offset="0"
         id="stop3769-6" />
      <stop
         style="stop-color:#e31e27;stop-opacity:1;"
         offset="1"
         id="stop3771-9" />
    </linearGradient>
    <linearGradient
       inkscape:collect="always"
       xlink:href="#linearGradient3755-0"
       id="linearGradient3763-0"
       x1="-24.607239"
       y1="-1.2718995"
       x2="-5.9498744"
       y2="-1.2718995"
       gradientUnits="userSpaceOnUse"
       gradientTransform="translate(0.09707451,-0.11194877)" />
    <linearGradient
       id="linearGradient3755-0">
      <stop
         style="stop-color:#333333;stop-opacity:1;"
         offset="0"
         id="stop3757-8" />
      <stop
         style="stop-color:#aaaaaa;stop-opacity:1;"
         offset="1"
         id="stop3759-6" />
    </linearGradient>
    <radialGradient
       r="9.3287811"
       fy="-1.2718995"
       fx="-15.278557"
       cy="-1.2718995"
       cx="-15.278557"
       gradientTransform="matrix(1.1321432,0,0,1.2777217,2.0189587,0.35206622)"
       gradientUnits="userSpaceOnUse"
       id="radialGradient3798"
       xlink:href="#linearGradient3767-5"
       inkscape:collect="always" />
    <linearGradient
       y2="-1.2718995"
       x2="-5.9498744"
       y1="-1.2718995"
       x1="-24.607239"
       gradientTransform="matrix(1.1321432,0,0,1.1321437,2.0189587,0.16690502)"
       gradientUnits="userSpaceOnUse"
       id="linearGradient3800"
       xlink:href="#linearGradient3755-0"
       inkscape:collect="always" />
  </defs>
  <sodipodi:namedview
     id="base"
     pagecolor="#ffffff"
     bordercolor="#666666"
     borderopacity="1.0"
     inkscape:pageopacity="0.0"
     inkscape:pageshadow="2"
     inkscape:zoom="11.2"
     inkscape:cx="-5.4474561"
     inkscape:cy="14.542935"
     inkscape:document-units="px"
     inkscape:current-layer="layer1"
     showgrid="false"
     inkscape:window-width="1366"
     inkscape:window-height="679"
     inkscape:window-x="0"
     inkscape:window-y="33"
     inkscape:window-maximized="1" />
  <metadata
     id="metadata7">
    <rdf:RDF>
      <cc:Work
         rdf:about="">
        <dc:format>image/svg+xml</dc:format>
        <dc:type
           rdf:resource="http://purl.org/dc/dcmitype/StillImage" />
        <dc:title />
      </cc:Work>
    </rdf:RDF>
  </metadata>
  <g
     inkscape:label="Layer 1"
     inkscape:groupmode="layer"
     id="layer1"
     transform="translate(0,-1020.3622)">
    <path
       sodipodi:type="arc"
       style="fill:url(#radialGradient3773);fill-opacity:1;fill-rule:nonzero;stroke:url(#linearGradient3763);stroke-width:1.53878069;stroke-linecap:square;stroke-linejoin:miter;stroke-miterlimit:4.0999999;stroke-opacity:1;stroke-dasharray:none;stroke-dashoffset:0"
       id="path2985"
       sodipodi:cx="-15.278557"
       sodipodi:cy="-1.2718995"
       sodipodi:rx="7.8286824"
       sodipodi:ry="9.0282383"
       d="m -7.4498744,-1.2718995 c 0,4.9861584 -3.5050206,9.0282383 -7.8286826,9.0282383 -4.323662,0 -7.828682,-4.0420799 -7.828682,-9.0282383 0,-4.9861583 3.50502,-9.0282385 7.828682,-9.0282385 4.323662,0 7.8286826,4.0420802 7.8286826,9.0282385 z"
       transform="matrix(1.4043073,0,0,1.217721,37.455788,1037.911)" />
    <path
       sodipodi:type="arc"
       style="fill:url(#radialGradient3798);fill-opacity:1;fill-rule:nonzero;stroke:url(#linearGradient3800);stroke-width:1.96284357;stroke-linecap:square;stroke-linejoin:miter;stroke-miterlimit:4.0999999;stroke-opacity:1;stroke-dasharray:none;stroke-dashoffset:0"
       id="path2985-4"
       sodipodi:cx="-15.278557"
       sodipodi:cy="-1.2718995"
       sodipodi:rx="7.8286824"
       sodipodi:ry="9.0282383"
       d="m -7.4498744,-1.2718995 c 0,4.9861584 -3.5050206,9.0282383 -7.8286826,9.0282383 -4.323662,0 -7.828682,-4.0420799 -7.828682,-9.0282383 0,-4.9861583 3.50502,-9.0282385 7.828682,-9.0282385 4.323662,0 7.8286826,4.0420802 7.8286826,9.0282385 z"
       transform="matrix(1.1489226,0,0,0.99626859,33.553879,1037.6293)" />
  </g>
</svg>
